C:\Users\muhsi\OneDrive\Desktop\Documents\NetBeansProjects\Practice\src\main\java\s2\practice\ComputeLoan.java
C:\Users\muhsi\OneDrive\Desktop\Documents\NetBeansProjects\Practice\src\main\java\s2\practice\Practice.java
C:\Users\muhsi\OneDrive\Desktop\Documents\NetBeansProjects\Practice\src\main\java\s2\practice\SalesTax.java
C:\Users\muhsi\OneDrive\Desktop\Documents\NetBeansProjects\Practice\src\main\java\s2\practice\ComputeAverage.java
C:\Users\muhsi\OneDrive\Desktop\Documents\NetBeansProjects\Practice\src\main\java\s2\practice\DisplayTime.java
C:\Users\muhsi\OneDrive\Desktop\Documents\NetBeansProjects\Practice\src\main\java\s2\practice\FahrenheitToCelcuis.java
C:\Users\muhsi\OneDrive\Desktop\Documents\NetBeansProjects\Practice\src\main\java\s2\practice\ShowCurrentTime.java
C:\Users\muhsi\OneDrive\Desktop\Documents\NetBeansProjects\Practice\src\main\java\s2\practice\ComputeArea.java
C:\Users\muhsi\OneDrive\Desktop\Documents\NetBeansProjects\Practice\src\main\java\s2\practice\ComputeAreaUser.java
